#-----------------------------------------------------------
# Webtalk v2017.4 (64-bit)
# SW Build 2086221 on Fri Dec 15 20:55:39 MST 2017
# IP Build 2085800 on Fri Dec 15 22:25:07 MST 2017
# Start of session at: Thu Nov  8 15:51:02 2018
# Process ID: 13012
# Current directory: C:/Users/hammi/OneDrive/Documenten/BitBucket/SchoolFPGA/4-bits adder/4-bits adder.sim/sim_1/behav/xsim
# Command line: wbtcv.exe -mode batch -source C:/Users/hammi/OneDrive/Documenten/BitBucket/SchoolFPGA/4-bits adder/4-bits adder.sim/sim_1/behav/xsim/xsim.dir/full_adder_behav/webtalk/xsim_webtalk.tcl -notrace
# Log file: C:/Users/hammi/OneDrive/Documenten/BitBucket/SchoolFPGA/4-bits adder/4-bits adder.sim/sim_1/behav/xsim/webtalk.log
# Journal file: C:/Users/hammi/OneDrive/Documenten/BitBucket/SchoolFPGA/4-bits adder/4-bits adder.sim/sim_1/behav/xsim\webtalk.jou
#-----------------------------------------------------------
source C:/Users/hammi/OneDrive/Documenten/BitBucket/SchoolFPGA/4-bits -notrace
couldn't read file "C:/Users/hammi/OneDrive/Documenten/BitBucket/SchoolFPGA/4-bits": permission denied
INFO: [Common 17-206] Exiting Webtalk at Thu Nov  8 15:51:02 2018...
